{
    "modules" : {
        "Alphabet": {
            "cards": {
                "0011279597": {"name": "Letter A", "commands": [{"command": "display", "value": "A"}]},
                "0011368190": {"name": "Letter B", "commands": [{"command": "display", "value": "B"}]},
                "0004249017": {"name": "Letter C", "commands": [{"command": "display", "value": "C"}]},
                "0011264595": {"name": "Letter D", "commands": [{"command": "display", "value": "D"}]},
                "0011290398": {"name": "Letter E", "commands": [{"command": "display", "value": "E"}]},
                "0004465202": {"name": "Letter F", "commands": [{"command": "display", "value": "F"}]},
                "0011274604": {"name": "Letter G", "commands": [{"command": "display", "value": "G"}]},
                "0011250104": {"name": "Letter H", "commands": [{"command": "display", "value": "H"}]},
                "0011259031": {"name": "Letter I", "commands": [{"command": "display", "value": "I"}]},
                "0011238797": {"name": "Letter J", "commands": [{"command": "display", "value": "J"}]}
            }
        },

        "Numbers": {
            "cards": {
                "0011279597": {"name": "Number 0", "commands": [{"command": "display", "value": "0"}]},
                "0011368190": {"name": "Number 1", "commands": [{"command": "display", "value": "1"}]},
                "0004249017": {"name": "Number 2", "commands": [{"command": "display", "value": "2"}]},
                "0011264595": {"name": "Number 3", "commands": [{"command": "display", "value": "3"}]},
                "0011290398": {"name": "Number 4", "commands": [{"command": "display", "value": "4"}]},
                "0004465202": {"name": "Number 5", "commands": [{"command": "display", "value": "5"}]},
                "0011274604": {"name": "Number 6", "commands": [{"command": "display", "value": "6"}]},
                "0011250104": {"name": "Number 7", "commands": [{"command": "display", "value": "7"}]},
                "0011259031": {"name": "Number 8", "commands": [{"command": "display", "value": "8"}]},
                "0011238797": {"name": "Number 9", "commands": [{"command": "display", "value": "9"}]}
            }            
        }
    }        

}